{
  "ElasticLoadBalancerBaseName": {
    "Description": "The name of the elastic load balancer for base instances",
    "Value": { "Ref": "ElasticLoadBalancerBase" }
  },
  "ElasticLoadBalancerBaseDNSName": {
    "Description": "DNS name for the elastic load balancer",
    "Value": { "Fn::GetAtt": ["ElasticLoadBalancerBase", "DNSName"] }
  }
}
