{
  "RouteTablePrivate": {
    "Value": { "Ref": "RouteTablePrivate" }
  },
  "RouteTablePublic": {
    "Value": { "Ref": "RouteTablePublic" }
  },
  "VirtualPrivateCloudOnMyBlock": {
    "Value": { "Ref": "VirtualPrivateCloudOnMyBlock" }
  }
}
