{
  "DBInstanceBaseDeletionPolicyDelete": {
    "Fn::And": [
      { "Fn::Equals": [{ "Ref": "DBInstanceBaseCreate" }, "true"] },
      { "Fn::Equals": [{ "Ref": "DBInstanceBaseDeletionPolicy" }, "Delete"] }
    ]
  },
  "DBInstanceBaseDeletionPolicyRetain": {
    "Fn::And": [
      { "Fn::Equals": [{ "Ref": "DBInstanceBaseCreate" }, "true"] },
      { "Fn::Equals": [{ "Ref": "DBInstanceBaseDeletionPolicy" }, "Retain"] }
    ]
  },
  "PeerVpcIdsExist": {
    "Fn::Not": [
      { "Fn::Equals": [{ "Fn::Select": [0, { "Ref": "PeerVpcIds" }] }, "0"] }
    ]
  }
}
